%YAML 1.1
%TAG !u! tag:unity3d.com,2011:
--- !u!114 &11400000
MonoBehaviour:
  m_ObjectHideFlags: 0
  m_CorrespondingSourceObject: {fileID: 0}
  m_PrefabInternal: {fileID: 0}
  m_GameObject: {fileID: 0}
  m_Enabled: 1
  m_EditorHideFlags: 0
  m_Script: {fileID: 11500000, guid: 19d2b39eba5a4cc4daf045c0576ab1ff, type: 3}
  m_Name: New Placeholder
  m_EditorClassIdentifier: 
  id: 0
  itemName: afaffa
  cost: 0
  itemType: 2
  description: 
  sprite: {fileID: 21300000, guid: 005888ede18a58e4db8d069cfa3007cb, type: 3}
  isEssential: 0
